Lock Screen,i3lock -i ~/.config/i3lock/lock.png,system-lock-screen
Logout,^root(clog),system-log-out
Suspend,systemctl -i suspend,system-suspend
Reboot,^root(creboot),system-reboot
Shutdown,^root(cshut),system-shutdown

^tag(clog)
^sep(Are you sure to logout?)
Yes,openbox --exit,system-log-out
No,,itmages-cancel

^tag(creboot)
^sep(Are you sure to reboot?)
Yes,systemctl -i reboot,system-reboot
No,,itmages-cancel

^tag(cshut)
^sep(Are you sure to shutdown?)
Yes,systemctl -i poweroff,system-shutdown
No,,itmages-cancel
